{
  "project_info": {
    "project_number": "217988548616",
    "firebase_url": "https://proyectom-cdbb1.firebaseio.com",
    "project_id": "proyectom-cdbb1",
    "storage_bucket": "proyectom-cdbb1.appspot.com"
  },
  "client": [
    {
      "client_info": {
        "mobilesdk_app_id": "1:217988548616:android:597f122b0e8d60200329bd",
        "android_client_info": {
          "package_name": "com.example.application"
        }
      },
      "oauth_client": [
        {
          "client_id": "217988548616-kctk839esqbr8f1fb2fkhbcah3nj4jdv.apps.googleusercontent.com",
          "client_type": 3
        }
      ],
      "api_key": [
        {
          "current_key": "AIzaSyA8k_OPcGFsaT1brbJMFjifoYYrhkY6kWo"
        }
      ],
      "services": {
        "appinvite_service": {
          "other_platform_oauth_client": [
            {
              "client_id": "217988548616-kctk839esqbr8f1fb2fkhbcah3nj4jdv.apps.googleusercontent.com",
              "client_type": 3
            }
          ]
        }
      }
    }
  ],
  "configuration_version": "1"
}